Given n (n<=10) pairs of parentheses, write a function to generate all combinations of well-formed parentheses of length 2*n.
For example, given n = 3, a solution set is:
"((()))", "(()())", "(())()", "()(())", "()()()"
Make sure the returned list of strings are sorted.

Input
3

Output
((()))
(()())
(())()
()(())
()()()


